{
  "patient": {"id": 1},
  "notes": "He is healthy",
  "visitCode": "02A",
  "provider": "Dr. Moncrieft",
  "billingCode": "201",
  "icd10": "Z00.12",
  "totalCost": 20,
  "copay": "20,",
  "chiefComplaint": "Well-child visit",
  "pulse": 90,
  "systolic": 90,
  "diastolic": 65,
  "date": 12052022

}